id;kecamatan_id;nama;created_at;updated_at
1;1;Adikarto;2017-04-28 14:39:00;2017-04-28 14:39:00
2;1;Adiluhur;2017-04-29 14:39:00;2017-04-29 14:39:00
3;1;Adimulyo;2017-04-30 14:39:00;2017-04-30 14:39:00
4;1;Arjomulyo;2017-05-01 14:39:00;2017-05-01 14:39:00
5;1;Arjosari;2017-05-02 14:39:00;2017-05-02 14:39:00
6;1;Banyuroto;2017-05-03 14:39:00;2017-05-03 14:39:00
7;1;Bonjok;2017-05-04 14:39:00;2017-05-04 14:39:00
8;1;Candi Wulan;2017-05-05 14:39:00;2017-05-05 14:39:00
9;1;Caruban;2017-05-06 14:39:00;2017-05-06 14:39:00
10;1;Joho;2017-05-07 14:39:00;2017-05-07 14:39:00
11;1;Kemujan;2017-05-08 14:39:00;2017-05-08 14:39:00
12;1;Mangunharjo;2017-05-09 14:39:00;2017-05-09 14:39:00
13;1;Meles;2017-05-10 14:39:00;2017-05-10 14:39:00
14;1;Pekuwon;2017-05-11 14:39:00;2017-05-11 14:39:00
15;1;Sekarteja;2017-05-12 14:39:00;2017-05-12 14:39:00
16;1;Sidamukti;2017-05-13 14:39:00;2017-05-13 14:39:00
17;1;Sidamulyo;2017-05-14 14:39:00;2017-05-14 14:39:00
18;1;Sugihwaras;2017-05-15 14:39:00;2017-05-15 14:39:00
19;1;Tambakharjo;2017-05-16 14:39:00;2017-05-16 14:39:00
20;1;Tegalsari;2017-05-17 14:39:00;2017-05-17 14:39:00
21;1;Temanggal;2017-05-18 14:39:00;2017-05-18 14:39:00
22;1;Tepakyang;2017-05-19 14:39:00;2017-05-19 14:39:00
23;1;Wajasari;2017-05-20 14:39:00;2017-05-20 14:39:00
24;2;Bojongsari;2017-05-21 14:39:00;2017-05-21 14:39:00
25;2;Jatimulyo;2017-05-22 14:39:00;2017-05-22 14:39:00
26;2;Kalijaya;2017-05-23 14:39:00;2017-05-23 14:39:00
27;2;Kaliputih;2017-05-24 14:39:00;2017-05-24 14:39:00
28;2;Kalirancang;2017-05-25 14:39:00;2017-05-25 14:39:00
29;2;Kambangsari;2017-05-26 14:39:00;2017-05-26 14:39:00
30;2;Karangkembang;2017-05-27 14:39:00;2017-05-27 14:39:00
31;2;Karangtanjung;2017-05-28 14:39:00;2017-05-28 14:39:00
32;2;Kemangguhan;2017-05-29 14:39:00;2017-05-29 14:39:00
33;2;Krakal;2017-05-30 14:39:00;2017-05-30 14:39:00
34;2;Sawangan;2017-05-31 14:39:00;2017-05-31 14:39:00
35;2;Seliling;2017-06-01 14:39:00;2017-06-01 14:39:00
36;2;Surotrunan;2017-06-02 14:39:00;2017-06-02 14:39:00
37;2;Tanuharjo;2017-06-03 14:39:00;2017-06-03 14:39:00
38;2;Tlogowulung;2017-06-04 14:39:00;2017-06-04 14:39:00
39;2;Wonokromo;2017-06-05 14:39:00;2017-06-05 14:39:00
40;3;Ambalkebrek;2017-06-06 14:39:00;2017-06-06 14:39:00
41;3;Ambalkliwonan;2017-06-07 14:39:00;2017-06-07 14:39:00
42;3;Ambalresmi;2017-06-08 14:39:00;2017-06-08 14:39:00
43;3;Ambarwinangun;2017-06-09 14:39:00;2017-06-09 14:39:00
44;3;Banjarsari;2017-06-10 14:39:00;2017-06-10 14:39:00
45;3;Benerkulon;2017-06-11 14:39:00;2017-06-11 14:39:00
46;3;Benerwetan;2017-06-12 14:39:00;2017-06-12 14:39:00
47;3;Blengorkulon;2017-06-13 14:39:00;2017-06-13 14:39:00
48;3;Blengorwetan;2017-06-14 14:39:00;2017-06-14 14:39:00
49;3;Dukuhrejasari;2017-06-15 14:39:00;2017-06-15 14:39:00
50;3;Entak;2017-06-16 14:39:00;2017-06-16 14:39:00
51;3;Gondanglegi;2017-06-17 14:39:00;2017-06-17 14:39:00
52;3;Kaibon;2017-06-18 14:39:00;2017-06-18 14:39:00
53;3;Kaibonpetangkuran;2017-06-19 14:39:00;2017-06-19 14:39:00
54;3;Kembangsawit;2017-06-20 14:39:00;2017-06-20 14:39:00
55;3;Kenayajayan;2017-06-21 14:39:00;2017-06-21 14:39:00
56;3;Kradenan;2017-06-22 14:39:00;2017-06-22 14:39:00
57;3;Lajer;2017-06-23 14:39:00;2017-06-23 14:39:00
58;3;Pagedangan;2017-06-24 14:39:00;2017-06-24 14:39:00
59;3;Pasarsenen;2017-06-25 14:39:00;2017-06-25 14:39:00
60;3;Peneket;2017-06-26 14:39:00;2017-06-26 14:39:00
61;3;Plempukankembaran;2017-06-27 14:39:00;2017-06-27 14:39:00
62;3;Prasutan;2017-06-28 14:39:00;2017-06-28 14:39:00
63;3;Pucangan;2017-06-29 14:39:00;2017-06-29 14:39:00
64;3;Sidareja;2017-06-30 14:39:00;2017-06-30 14:39:00
65;3;Sidoluhur;2017-07-01 14:39:00;2017-07-01 14:39:00
66;3;Sidomukti;2017-07-02 14:39:00;2017-07-02 14:39:00
67;3;Sidomulyo;2017-07-03 14:39:00;2017-07-03 14:39:00
68;3;Singosari;2017-07-04 14:39:00;2017-07-04 14:39:00
69;3;Sinungreja;2017-07-05 14:39:00;2017-07-05 14:39:00
70;3;Sumberjati;2017-07-06 14:39:00;2017-07-06 14:39:00
71;3;Surobayan;2017-07-07 14:39:00;2017-07-07 14:39:00
72;4;Argopeni;2017-07-08 14:39:00;2017-07-08 14:39:00
73;4;Argosari;2017-07-09 14:39:00;2017-07-09 14:39:00
74;4;Ayah;2017-07-10 14:39:00;2017-07-10 14:39:00
75;4;Banjararjo;2017-07-11 14:39:00;2017-07-11 14:39:00
76;4;Bulurejo;2017-07-12 14:39:00;2017-07-12 14:39:00
77;4;Candirenggo;2017-07-13 14:39:00;2017-07-13 14:39:00
78;4;Demangsari;2017-07-14 14:39:00;2017-07-14 14:39:00
79;4;Jatijajar;2017-07-15 14:39:00;2017-07-15 14:39:00
80;4;Jintung;2017-07-16 14:39:00;2017-07-16 14:39:00
81;4;Kalibangkang;2017-07-17 14:39:00;2017-07-17 14:39:00
82;4;Kalipoh;2017-07-18 14:39:00;2017-07-18 14:39:00
83;4;Karangduwur;2017-07-19 14:39:00;2017-07-19 14:39:00
84;4;Kedungweru;2017-07-20 14:39:00;2017-07-20 14:39:00
85;4;Mangunweni;2017-07-21 14:39:00;2017-07-21 14:39:00
86;4;Pasir;2017-07-22 14:39:00;2017-07-22 14:39:00
87;4;Srati;2017-07-23 14:39:00;2017-07-23 14:39:00
88;4;Tlogosari;2017-07-24 14:39:00;2017-07-24 14:39:00
89;4;Watukelir;2017-07-25 14:39:00;2017-07-25 14:39:00
90;5;Balorejo;2017-07-26 14:39:00;2017-07-26 14:39:00
91;5;Bonjokkidul;2017-07-27 14:39:00;2017-07-27 14:39:00
92;5;Bonjoklor;2017-07-28 14:39:00;2017-07-28 14:39:00
93;5;Bonorowo;2017-07-29 14:39:00;2017-07-29 14:39:00
94;5;Mrentul;2017-07-30 14:39:00;2017-07-30 14:39:00
95;5;Ngasinan;2017-07-31 14:39:00;2017-07-31 14:39:00
96;5;Patukrejo;2017-08-01 14:39:00;2017-08-01 14:39:00
97;5;Pujodadi;2017-08-02 14:39:00;2017-08-02 14:39:00
98;5;Rowosari;2017-08-03 14:39:00;2017-08-03 14:39:00
99;5;Sirnoboyo;2017-08-04 14:39:00;2017-08-04 14:39:00
100;5;Tlogorejo;2017-08-05 14:39:00;2017-08-05 14:39:00
101;6;Adiwarno;2017-08-06 14:39:00;2017-08-06 14:39:00
102;6;Banyumudal;2017-08-07 14:39:00;2017-08-07 14:39:00
103;6;Buayan;2017-08-08 14:39:00;2017-08-08 14:39:00
104;6;Geblug;2017-08-09 14:39:00;2017-08-09 14:39:00
105;6;Jatiroto;2017-08-10 14:39:00;2017-08-10 14:39:00
106;6;Jladri;2017-08-11 14:39:00;2017-08-11 14:39:00
107;6;Jogomulyo;2017-08-12 14:39:00;2017-08-12 14:39:00
108;6;Karangbolong;2017-08-13 14:39:00;2017-08-13 14:39:00
109;6;Karangsari;2017-08-14 14:39:00;2017-08-14 14:39:00
110;6;Mergosono;2017-08-15 14:39:00;2017-08-15 14:39:00
111;6;Nogoraji;2017-08-16 14:39:00;2017-08-16 14:39:00
112;6;Pakuran;2017-08-17 14:39:00;2017-08-17 14:39:00
113;6;Purbowangi;2017-08-18 14:39:00;2017-08-18 14:39:00
114;6;Rangkah;2017-08-19 14:39:00;2017-08-19 14:39:00
115;6;Rogodadi;2017-08-20 14:39:00;2017-08-20 14:39:00
116;6;Rogodono;2017-08-21 14:39:00;2017-08-21 14:39:00
117;6;Semampir;2017-08-22 14:39:00;2017-08-22 14:39:00
118;6;Sikayu;2017-08-23 14:39:00;2017-08-23 14:39:00
119;6;Tugu;2017-08-24 14:39:00;2017-08-24 14:39:00
120;6;Wonodadi;2017-08-25 14:39:00;2017-08-25 14:39:00
121;7;Ambalkumolo;2017-08-26 14:39:00;2017-08-26 14:39:00
122;7;Ampih;2017-08-27 14:39:00;2017-08-27 14:39:00
123;7;Arjowinangun;2017-08-28 14:39:00;2017-08-28 14:39:00
124;7;Ayamputih;2017-08-29 14:39:00;2017-08-29 14:39:00
125;7;Banjurmukadan;2017-08-30 14:39:00;2017-08-30 14:39:00
126;7;Banjurpasar;2017-08-31 14:39:00;2017-08-31 14:39:00
127;7;Bocor;2017-09-01 14:39:00;2017-09-01 14:39:00
128;7;Brecong;2017-09-02 14:39:00;2017-09-02 14:39:00
129;7;Buluspesantren;2017-09-03 14:39:00;2017-09-03 14:39:00
130;7;Indrosari;2017-09-04 14:39:00;2017-09-04 14:39:00
131;7;Jogopaten;2017-09-05 14:39:00;2017-09-05 14:39:00
132;7;Kloposawit;2017-09-06 14:39:00;2017-09-06 14:39:00
133;7;Maduretno;2017-09-07 14:39:00;2017-09-07 14:39:00
134;7;Rantewringin;2017-09-08 14:39:00;2017-09-08 14:39:00
135;7;Sangubanyu;2017-09-09 14:39:00;2017-09-09 14:39:00
136;7;Setrojenar;2017-09-10 14:39:00;2017-09-10 14:39:00
137;7;Sidomoro;2017-09-11 14:39:00;2017-09-11 14:39:00
138;7;Tambakrejo;2017-09-12 14:39:00;2017-09-12 14:39:00
139;7;Tanjungrejo;2017-09-13 14:39:00;2017-09-13 14:39:00
140;7;Tanjungsari;2017-09-14 14:39:00;2017-09-14 14:39:00
141;7;Waluyo;2017-09-15 14:39:00;2017-09-15 14:39:00
142;8;Banjarsari;2017-09-16 14:39:00;2017-09-16 14:39:00
143;8;Gombong;2017-09-17 14:39:00;2017-09-17 14:39:00
144;8;Kalitengah;2017-09-18 14:39:00;2017-09-18 14:39:00
145;8;Kedungpuji;2017-09-19 14:39:00;2017-09-19 14:39:00
146;8;Kemukus;2017-09-20 14:39:00;2017-09-20 14:39:00
147;8;Klopogodo;2017-09-21 14:39:00;2017-09-21 14:39:00
148;8;Panjangsari;2017-09-22 14:39:00;2017-09-22 14:39:00
149;8;Patemon;2017-09-23 14:39:00;2017-09-23 14:39:00
150;8;Semanding;2017-09-24 14:39:00;2017-09-24 14:39:00
151;8;Semondo;2017-09-25 14:39:00;2017-09-25 14:39:00
152;8;Sidayu;2017-09-26 14:39:00;2017-09-26 14:39:00
153;8;Wero;2017-09-27 14:39:00;2017-09-27 14:39:00
154;8;Wonokriyo;2017-09-28 14:39:00;2017-09-28 14:39:00
155;8;Wonosigro;2017-09-29 14:39:00;2017-09-29 14:39:00
156;9;Candi;2017-09-30 14:39:00;2017-09-30 14:39:00
157;9;Giripurno;2017-10-01 14:39:00;2017-10-01 14:39:00
158;9;Grenggeng;2017-10-02 14:39:00;2017-10-02 14:39:00
159;9;Jatiluhur;2017-10-03 14:39:00;2017-10-03 14:39:00
160;9;Karanganyar;2017-10-04 14:39:00;2017-10-04 14:39:00
161;9;Karangkemiri;2017-10-05 14:39:00;2017-10-05 14:39:00
162;9;Panjatan;2017-10-06 14:39:00;2017-10-06 14:39:00
163;9;Plarangan;2017-10-07 14:39:00;2017-10-07 14:39:00
164;9;Pohkumbang;2017-10-08 14:39:00;2017-10-08 14:39:00
165;9;Sidomulyo;2017-10-09 14:39:00;2017-10-09 14:39:00
166;9;Wonorejo;2017-10-10 14:39:00;2017-10-10 14:39:00
167;10;Binangun;2017-10-11 14:39:00;2017-10-11 14:39:00
168;10;Clapar;2017-10-12 14:39:00;2017-10-12 14:39:00
169;10;Ginandong;2017-10-13 14:39:00;2017-10-13 14:39:00
170;10;Giritirto;2017-10-14 14:39:00;2017-10-14 14:39:00
171;10;Glontor;2017-10-15 14:39:00;2017-10-15 14:39:00
172;10;Gunungsari;2017-10-16 14:39:00;2017-10-16 14:39:00
173;10;Kajoran;2017-10-17 14:39:00;2017-10-17 14:39:00
174;10;Kalibening;2017-10-18 14:39:00;2017-10-18 14:39:00
175;10;Kalirejo;2017-10-19 14:39:00;2017-10-19 14:39:00
176;10;Karanggayam;2017-10-20 14:39:00;2017-10-20 14:39:00
177;10;Karangmojo;2017-10-21 14:39:00;2017-10-21 14:39:00
178;10;Karangrejo;2017-10-22 14:39:00;2017-10-22 14:39:00
179;10;Karangtengah;2017-10-23 14:39:00;2017-10-23 14:39:00
180;10;Kebakalan;2017-10-24 14:39:00;2017-10-24 14:39:00
181;10;Logandu;2017-10-25 14:39:00;2017-10-25 14:39:00
182;10;Pagebangan;2017-10-26 14:39:00;2017-10-26 14:39:00
183;10;Penimbun;2017-10-27 14:39:00;2017-10-27 14:39:00
184;10;Selogiri;2017-10-28 14:39:00;2017-10-28 14:39:00
185;10;Wonotirto;2017-10-29 14:39:00;2017-10-29 14:39:00
186;11;Banioro;2017-10-30 14:39:00;2017-10-30 14:39:00
187;11;Kaligending;2017-10-31 14:39:00;2017-10-31 14:39:00
188;11;Kalisana;2017-11-01 14:39:00;2017-11-01 14:39:00
189;11;Karangsambung;2017-11-02 14:39:00;2017-11-02 14:39:00
190;11;Kedungwaru;2017-11-03 14:39:00;2017-11-03 14:39:00
191;11;Langse;2017-11-04 14:39:00;2017-11-04 14:39:00
192;11;Pencil;2017-11-05 14:39:00;2017-11-05 14:39:00
193;11;Plumbon;2017-11-06 14:39:00;2017-11-06 14:39:00
194;11;Pujotirto;2017-11-07 14:39:00;2017-11-07 14:39:00
195;11;Seling;2017-11-08 14:39:00;2017-11-08 14:39:00
196;11;Tlepok;2017-11-09 14:39:00;2017-11-09 14:39:00
197;11;Totogan;2017-11-10 14:39:00;2017-11-10 14:39:00
198;11;Wadasmalang;2017-11-11 14:39:00;2017-11-11 14:39:00
199;11;Widoro;2017-11-12 14:39:00;2017-11-12 14:39:00
200;12;Adikarso;2017-11-13 14:39:00;2017-11-13 14:39:00
201;12;Argopeni;2017-11-14 14:39:00;2017-11-14 14:39:00
202;12;Bandung;2017-11-15 14:39:00;2017-11-15 14:39:00
203;12;Bumirejo;2017-11-16 14:39:00;2017-11-16 14:39:00
204;12;Candimulyo;2017-11-17 14:39:00;2017-11-17 14:39:00
205;12;Candiwulan;2017-11-18 14:39:00;2017-11-18 14:39:00
206;12;Depokrejo;2017-11-19 14:39:00;2017-11-19 14:39:00
207;12;Gemeksekti;2017-11-20 14:39:00;2017-11-20 14:39:00
208;12;Gesikan;2017-11-21 14:39:00;2017-11-21 14:39:00
209;12;Jatisari;2017-11-22 14:39:00;2017-11-22 14:39:00
210;12;Jemur;2017-11-23 14:39:00;2017-11-23 14:39:00
211;12;Kalibagor;2017-11-24 14:39:00;2017-11-24 14:39:00
212;12;Kalijirek;2017-11-25 14:39:00;2017-11-25 14:39:00
213;12;Kalirejo;2017-11-26 14:39:00;2017-11-26 14:39:00
214;12;Karangsari;2017-11-27 14:39:00;2017-11-27 14:39:00
215;12;Kawedusan;2017-11-28 14:39:00;2017-11-28 14:39:00
216;12;Kebumen;2017-11-29 14:39:00;2017-11-29 14:39:00
217;12;Kembaran;2017-11-30 14:39:00;2017-11-30 14:39:00
218;12;Kutosari;2017-12-01 14:39:00;2017-12-01 14:39:00
219;12;Mengkowo;2017-12-02 14:39:00;2017-12-02 14:39:00
220;12;Muktirejo;2017-12-03 14:39:00;2017-12-03 14:39:00
221;12;Muktisari;2017-12-04 14:39:00;2017-12-04 14:39:00
222;12;Panjer;2017-12-05 14:39:00;2017-12-05 14:39:00
223;12;Roworejo;2017-12-06 14:39:00;2017-12-06 14:39:00
224;12;Selang;2017-12-07 14:39:00;2017-12-07 14:39:00
225;12;Sumberadi;2017-12-08 14:39:00;2017-12-08 14:39:00
226;12;Tamanwinangun;2017-12-09 14:39:00;2017-12-09 14:39:00
227;12;Tanahsari;2017-12-10 14:39:00;2017-12-10 14:39:00
228;12;Wonosari;2017-12-11 14:39:00;2017-12-11 14:39:00
229;13;Bendogarap;2017-12-12 14:39:00;2017-12-12 14:39:00
230;13;Bumiharjo;2017-12-13 14:39:00;2017-12-13 14:39:00
231;13;Dorowati;2017-12-14 14:39:00;2017-12-14 14:39:00
232;13;Gadungrejo;2017-12-15 14:39:00;2017-12-15 14:39:00
233;13;Gebangsari;2017-12-16 14:39:00;2017-12-16 14:39:00
234;13;Jatimalang;2017-12-17 14:39:00;2017-12-17 14:39:00
235;13;Jerukagung;2017-12-18 14:39:00;2017-12-18 14:39:00
236;13;Jogosimo;2017-12-19 14:39:00;2017-12-19 14:39:00
237;13;Kaliwungu;2017-12-20 14:39:00;2017-12-20 14:39:00
238;13;Karangglonggong;2017-12-21 14:39:00;2017-12-21 14:39:00
239;13;Kebadongan;2017-12-22 14:39:00;2017-12-22 14:39:00
240;13;Kedungsari;2017-12-23 14:39:00;2017-12-23 14:39:00
241;13;Kedungwinangun;2017-12-24 14:39:00;2017-12-24 14:39:00
242;13;Klegenrejo;2017-12-25 14:39:00;2017-12-25 14:39:00
243;13;Klegenwonosari;2017-12-26 14:39:00;2017-12-26 14:39:00
244;13;Klirong;2017-12-27 14:39:00;2017-12-27 14:39:00
245;13;Pandanlor;2017-12-28 14:39:00;2017-12-28 14:39:00
246;13;Podoluhur;2017-12-29 14:39:00;2017-12-29 14:39:00
247;13;Ranterejo;2017-12-30 14:39:00;2017-12-30 14:39:00
248;13;Sitirejo;2017-12-31 14:39:00;2017-12-31 14:39:00
249;13;Tambakagung;2018-01-01 14:39:00;2018-01-01 14:39:00
250;13;Tambakprogaten;2018-01-02 14:39:00;2018-01-02 14:39:00
251;13;Tanggulangin;2018-01-03 14:39:00;2018-01-03 14:39:00
252;13;Wotbuwono;2018-01-04 14:39:00;2018-01-04 14:39:00
253;14;Babadsari;2018-01-05 14:39:00;2018-01-05 14:39:00
254;14;Jlegiwinangun;2018-01-06 14:39:00;2018-01-06 14:39:00
255;14;Kaliputih;2018-01-07 14:39:00;2018-01-07 14:39:00
256;14;Karangsari;2018-01-08 14:39:00;2018-01-08 14:39:00
257;14;Korowelang;2018-01-09 14:39:00;2018-01-09 14:39:00
258;14;Kutowinangun;2018-01-10 14:39:00;2018-01-10 14:39:00
259;14;Kuwarisan;2018-01-11 14:39:00;2018-01-11 14:39:00
260;14;Lumbu;2018-01-12 14:39:00;2018-01-12 14:39:00
261;14;Lundong;2018-01-13 14:39:00;2018-01-13 14:39:00
262;14;Mekarsari;2018-01-14 14:39:00;2018-01-14 14:39:00
263;14;Mrinen;2018-01-15 14:39:00;2018-01-15 14:39:00
264;14;Pejagatan;2018-01-16 14:39:00;2018-01-16 14:39:00
265;14;Pekunden;2018-01-17 14:39:00;2018-01-17 14:39:00
266;14;Pesalakan;2018-01-18 14:39:00;2018-01-18 14:39:00
267;14;Tanjungmeru;2018-01-19 14:39:00;2018-01-19 14:39:00
268;14;Tanjungsari;2018-01-20 14:39:00;2018-01-20 14:39:00
269;14;Tanjungseto;2018-01-21 14:39:00;2018-01-21 14:39:00
270;14;Triwarno;2018-01-22 14:39:00;2018-01-22 14:39:00
271;14;Ungaran;2018-01-23 14:39:00;2018-01-23 14:39:00
272;15;Banjareja;2018-01-24 14:39:00;2018-01-24 14:39:00
273;15;Bendungan;2018-01-25 14:39:00;2018-01-25 14:39:00
274;15;Gandusari;2018-01-26 14:39:00;2018-01-26 14:39:00
275;15;Gumawang;2018-01-27 14:39:00;2018-01-27 14:39:00
276;15;Gunungmujil;2018-01-28 14:39:00;2018-01-28 14:39:00
277;15;Harjodowo;2018-01-29 14:39:00;2018-01-29 14:39:00
278;15;Jatimulya;2018-01-30 14:39:00;2018-01-30 14:39:00
279;15;Kalipurwo;2018-01-31 14:39:00;2018-01-31 14:39:00
280;15;Kamulyan;2018-02-01 14:39:00;2018-02-01 14:39:00
281;15;Kuwarasan;2018-02-02 14:39:00;2018-02-02 14:39:00
282;15;Kuwaru;2018-02-03 14:39:00;2018-02-03 14:39:00
283;15;Lemahduwur;2018-02-04 14:39:00;2018-02-04 14:39:00
284;15;Madureso;2018-02-05 14:39:00;2018-02-05 14:39:00
285;15;Mangli;2018-02-06 14:39:00;2018-02-06 14:39:00
286;15;Ori;2018-02-07 14:39:00;2018-02-07 14:39:00
287;15;Pondokgebangsari;2018-02-08 14:39:00;2018-02-08 14:39:00
288;15;Purwodadi;2018-02-09 14:39:00;2018-02-09 14:39:00
289;15;Sawangan;2018-02-10 14:39:00;2018-02-10 14:39:00
290;15;Serut;2018-02-11 14:39:00;2018-02-11 14:39:00
291;15;Sidomukti;2018-02-12 14:39:00;2018-02-12 14:39:00
292;15;Tambaksari;2018-02-13 14:39:00;2018-02-13 14:39:00
293;15;Wonoyoso;2018-02-14 14:39:00;2018-02-14 14:39:00
294;16;Karanggede;2018-02-15 14:39:00;2018-02-15 14:39:00
295;16;Kertodeso;2018-02-16 14:39:00;2018-02-16 14:39:00
296;16;Krubungan;2018-02-17 14:39:00;2018-02-17 14:39:00
297;16;Lembupurwo;2018-02-18 14:39:00;2018-02-18 14:39:00
298;16;Mangunranan;2018-02-19 14:39:00;2018-02-19 14:39:00
299;16;Mirit;2018-02-20 14:39:00;2018-02-20 14:39:00
300;16;Miritpetikusan;2018-02-21 14:39:00;2018-02-21 14:39:00
301;16;Ngabeyan;2018-02-22 14:39:00;2018-02-22 14:39:00
302;16;Patukgawemulyo;2018-02-23 14:39:00;2018-02-23 14:39:00
303;16;Patukrejomulyo;2018-02-24 14:39:00;2018-02-24 14:39:00
304;16;Pekutan;2018-02-25 14:39:00;2018-02-25 14:39:00
305;16;Rowo;2018-02-26 14:39:00;2018-02-26 14:39:00
306;16;Sarwogadung;2018-02-27 14:39:00;2018-02-27 14:39:00
307;16;Selotumpeng;2018-02-28 14:39:00;2018-02-28 14:39:00
308;16;Singoyudan;2018-03-01 14:39:00;2018-03-01 14:39:00
309;16;Sitibentar;2018-03-02 14:39:00;2018-03-02 14:39:00
310;16;Tlogodepok;2018-03-03 14:39:00;2018-03-03 14:39:00
311;16;Tlogopragoto;2018-03-04 14:39:00;2018-03-04 14:39:00
312;16;Wergonayan;2018-03-05 14:39:00;2018-03-05 14:39:00
313;16;Winong;2018-03-06 14:39:00;2018-03-06 14:39:00
314;16;Wirogaten;2018-03-07 14:39:00;2018-03-07 14:39:00
315;16;Wiromartan;2018-03-08 14:39:00;2018-03-08 14:39:00
316;17;Balingasal;2018-03-09 14:39:00;2018-03-09 14:39:00
317;17;Kaligubuk;2018-03-10 14:39:00;2018-03-10 14:39:00
318;17;Kalijering;2018-03-11 14:39:00;2018-03-11 14:39:00
319;17;Merden;2018-03-12 14:39:00;2018-03-12 14:39:00
320;17;Padureso;2018-03-13 14:39:00;2018-03-13 14:39:00
321;17;Pejengkolan;2018-03-14 14:39:00;2018-03-14 14:39:00
322;17;Rahayu;2018-03-15 14:39:00;2018-03-15 14:39:00
323;17;Sendangdalem;2018-03-16 14:39:00;2018-03-16 14:39:00
324;17;Sidototo;2018-03-17 14:39:00;2018-03-17 14:39:00
325;18;Aditirto;2018-03-18 14:39:00;2018-03-18 14:39:00
326;18;Jemur;2018-03-19 14:39:00;2018-03-19 14:39:00
327;18;Karangpoh;2018-03-20 14:39:00;2018-03-20 14:39:00
328;18;Kebagoran;2018-03-21 14:39:00;2018-03-21 14:39:00
329;18;Kebulusan;2018-03-22 14:39:00;2018-03-22 14:39:00
330;18;Kedawung;2018-03-23 14:39:00;2018-03-23 14:39:00
331;18;Kuwayuhan;2018-03-24 14:39:00;2018-03-24 14:39:00
332;18;Logede;2018-03-25 14:39:00;2018-03-25 14:39:00
333;18;Pejagoan;2018-03-26 14:39:00;2018-03-26 14:39:00
334;18;Pengaringan;2018-03-27 14:39:00;2018-03-27 14:39:00
335;18;Peniron;2018-03-28 14:39:00;2018-03-28 14:39:00
336;18;Prigi;2018-03-29 14:39:00;2018-03-29 14:39:00
337;18;Watulawang;2018-03-30 14:39:00;2018-03-30 14:39:00
338;19;Ampelsari;2018-03-31 14:39:00;2018-03-31 14:39:00
339;19;Banjarwinangun;2018-04-01 14:39:00;2018-04-01 14:39:00
340;19;Grogolbeningsari;2018-04-02 14:39:00;2018-04-02 14:39:00
341;19;Grogolpenatus;2018-04-03 14:39:00;2018-04-03 14:39:00
342;19;Grujugan;2018-04-04 14:39:00;2018-04-04 14:39:00
343;19;Jagamertan;2018-04-05 14:39:00;2018-04-05 14:39:00
344;19;Jatimulyo;2018-04-06 14:39:00;2018-04-06 14:39:00
345;19;Karangduwur;2018-04-07 14:39:00;2018-04-07 14:39:00
346;19;Karanggadung;2018-04-08 14:39:00;2018-04-08 14:39:00
347;19;Karangrejo;2018-04-09 14:39:00;2018-04-09 14:39:00
348;19;Kebonsari;2018-04-10 14:39:00;2018-04-10 14:39:00
349;19;Kritig;2018-04-11 14:39:00;2018-04-11 14:39:00
350;19;Kuwangunan;2018-04-12 14:39:00;2018-04-12 14:39:00
351;19;Munggu;2018-04-13 14:39:00;2018-04-13 14:39:00
352;19;Nampudadi;2018-04-14 14:39:00;2018-04-14 14:39:00
353;19;Petanahan;2018-04-15 14:39:00;2018-04-15 14:39:00
354;19;Podourip;2018-04-16 14:39:00;2018-04-16 14:39:00
355;19;Sidomulyo;2018-04-17 14:39:00;2018-04-17 14:39:00
356;19;Tanjungsari;2018-04-18 14:39:00;2018-04-18 14:39:00
357;19;Tegalretno;2018-04-19 14:39:00;2018-04-19 14:39:00
358;19;Tresnorejo;2018-04-20 14:39:00;2018-04-20 14:39:00
359;20;Blater;2018-04-21 14:39:00;2018-04-21 14:39:00
360;20;Jatipurus;2018-04-22 14:39:00;2018-04-22 14:39:00
361;20;Jembangan;2018-04-23 14:39:00;2018-04-23 14:39:00
362;20;Karangtengah;2018-04-24 14:39:00;2018-04-24 14:39:00
363;20;Kebapangan;2018-04-25 14:39:00;2018-04-25 14:39:00
364;20;Kedungdowo;2018-04-26 14:39:00;2018-04-26 14:39:00
365;20;Lerepkebumen;2018-04-27 14:39:00;2018-04-27 14:39:00
366;20;Poncowarno;2018-04-28 14:39:00;2018-04-28 14:39:00
367;20;Soka;2018-04-29 14:39:00;2018-04-29 14:39:00
368;20;Tegalrejo;2018-04-30 14:39:00;2018-04-30 14:39:00
369;20;Tirtomoyo;2018-05-01 14:39:00;2018-05-01 14:39:00
370;21;Bagung;2018-05-02 14:39:00;2018-05-02 14:39:00
371;21;Kabekelan;2018-05-03 14:39:00;2018-05-03 14:39:00
372;21;Kabuaran;2018-05-04 14:39:00;2018-05-04 14:39:00
373;21;Kedungbulus;2018-05-05 14:39:00;2018-05-05 14:39:00
374;21;Kedungwaru;2018-05-06 14:39:00;2018-05-06 14:39:00
375;21;Mulyosri;2018-05-07 14:39:00;2018-05-07 14:39:00
376;21;Pecarikan;2018-05-08 14:39:00;2018-05-08 14:39:00
377;21;Pesuningan;2018-05-09 14:39:00;2018-05-09 14:39:00
378;21;Prembun;2018-05-10 14:39:00;2018-05-10 14:39:00
379;21;Sembirkadipaten;2018-05-11 14:39:00;2018-05-11 14:39:00
380;21;Sidogede;2018-05-12 14:39:00;2018-05-12 14:39:00
381;21;Tersobo;2018-05-13 14:39:00;2018-05-13 14:39:00
382;21;Tunggalroso;2018-05-14 14:39:00;2018-05-14 14:39:00
383;22;Arjowinangun;2018-05-15 14:39:00;2018-05-15 14:39:00
384;22;Banjarejo;2018-05-16 14:39:00;2018-05-16 14:39:00
385;22;Bumirejo;2018-05-17 14:39:00;2018-05-17 14:39:00
386;22;Kaleng;2018-05-18 14:39:00;2018-05-18 14:39:00
387;22;Kedalemankulon;2018-05-19 14:39:00;2018-05-19 14:39:00
388;22;Kedalemanwetan;2018-05-20 14:39:00;2018-05-20 14:39:00
389;22;Krandegan;2018-05-21 14:39:00;2018-05-21 14:39:00
390;22;Madurejo;2018-05-22 14:39:00;2018-05-22 14:39:00
391;22;Pasuruhan (Pasuruan);2018-05-23 14:39:00;2018-05-23 14:39:00
392;22;Puliharjo;2018-05-24 14:39:00;2018-05-24 14:39:00
393;22;Purwoharjo;2018-05-25 14:39:00;2018-05-25 14:39:00
394;22;Purwosari;2018-05-26 14:39:00;2018-05-26 14:39:00
395;22;Sidobunder;2018-05-27 14:39:00;2018-05-27 14:39:00
396;22;Sidodadi;2018-05-28 14:39:00;2018-05-28 14:39:00
397;22;Sidoharjo;2018-05-29 14:39:00;2018-05-29 14:39:00
398;22;Sitiadi;2018-05-30 14:39:00;2018-05-30 14:39:00
399;22;Srusuhjurutengah;2018-05-31 14:39:00;2018-05-31 14:39:00
400;22;Surorejan;2018-06-01 14:39:00;2018-06-01 14:39:00
401;22;Tambakmulyo;2018-06-02 14:39:00;2018-06-02 14:39:00
402;22;Tukinggedong;2018-06-03 14:39:00;2018-06-03 14:39:00
403;22;Waluyorejo;2018-06-04 14:39:00;2018-06-04 14:39:00
404;22;Wetonkulon;2018-06-05 14:39:00;2018-06-05 14:39:00
405;22;Wetonwetan;2018-06-06 14:39:00;2018-06-06 14:39:00
406;23;Bumiagung;2018-06-07 14:39:00;2018-06-07 14:39:00
407;23;Giyanti;2018-06-08 14:39:00;2018-06-08 14:39:00
408;23;Jatiluhur;2018-06-09 14:39:00;2018-06-09 14:39:00
409;23;Kalisari;2018-06-10 14:39:00;2018-06-10 14:39:00
410;23;Kretek;2018-06-11 14:39:00;2018-06-11 14:39:00
411;23;Pringtutul;2018-06-12 14:39:00;2018-06-12 14:39:00
412;23;Redisari;2018-06-13 14:39:00;2018-06-13 14:39:00
413;23;Rowokele;2018-06-14 14:39:00;2018-06-14 14:39:00
414;23;Sukomulyo;2018-06-15 14:39:00;2018-06-15 14:39:00
415;23;Wagirpandan;2018-06-16 14:39:00;2018-06-16 14:39:00
416;23;Wonoharjo;2018-06-17 14:39:00;2018-06-17 14:39:00
417;24;Cangkring;2018-06-18 14:39:00;2018-06-18 14:39:00
418;24;Kedunggong;2018-06-19 14:39:00;2018-06-19 14:39:00
419;24;Pucangan;2018-06-20 14:39:00;2018-06-20 14:39:00
420;24;Sadangkulon;2018-06-21 14:39:00;2018-06-21 14:39:00
421;24;Sadangwetan;2018-06-22 14:39:00;2018-06-22 14:39:00
422;24;Seboro;2018-06-23 14:39:00;2018-06-23 14:39:00
423;24;Wonosari;2018-06-24 14:39:00;2018-06-24 14:39:00
424;25;Bejiruyung;2018-06-25 14:39:00;2018-06-25 14:39:00
425;25;Bonosari;2018-06-26 14:39:00;2018-06-26 14:39:00
426;25;Donorojo;2018-06-27 14:39:00;2018-06-27 14:39:00
427;25;Jatinegoro;2018-06-28 14:39:00;2018-06-28 14:39:00
428;25;Kalibeji;2018-06-29 14:39:00;2018-06-29 14:39:00
429;25;Kedungjati;2018-06-30 14:39:00;2018-06-30 14:39:00
430;25;Kedungwringin;2018-07-01 14:39:00;2018-07-01 14:39:00
431;25;Kenteng;2018-07-02 14:39:00;2018-07-02 14:39:00
432;25;Pekuncen;2018-07-03 14:39:00;2018-07-03 14:39:00
433;25;Sampang;2018-07-04 14:39:00;2018-07-04 14:39:00
434;25;Selokerto;2018-07-05 14:39:00;2018-07-05 14:39:00
435;25;Semali;2018-07-06 14:39:00;2018-07-06 14:39:00
436;25;Sempor;2018-07-07 14:39:00;2018-07-07 14:39:00
437;25;Sidoharum;2018-07-08 14:39:00;2018-07-08 14:39:00
438;25;Somagede;2018-07-09 14:39:00;2018-07-09 14:39:00
439;25;Tunjungseto;2018-07-10 14:39:00;2018-07-10 14:39:00
440;26;Condongcampur;2018-07-11 14:39:00;2018-07-11 14:39:00
441;26;Donosari;2018-07-12 14:39:00;2018-07-12 14:39:00
442;26;Giwangretno;2018-07-13 14:39:00;2018-07-13 14:39:00
443;26;Jabres;2018-07-14 14:39:00;2018-07-14 14:39:00
444;26;Karanggedang;2018-07-15 14:39:00;2018-07-15 14:39:00
445;26;Karangjambu;2018-07-16 14:39:00;2018-07-16 14:39:00
446;26;Karangpule;2018-07-17 14:39:00;2018-07-17 14:39:00
447;26;Karangsari;2018-07-18 14:39:00;2018-07-18 14:39:00
448;26;Kejawang;2018-07-19 14:39:00;2018-07-19 14:39:00
449;26;Klepusanggar;2018-07-20 14:39:00;2018-07-20 14:39:00
450;26;Menganti;2018-07-21 14:39:00;2018-07-21 14:39:00
451;26;Pakuran;2018-07-22 14:39:00;2018-07-22 14:39:00
452;26;Pandansari;2018-07-23 14:39:00;2018-07-23 14:39:00
453;26;Pengempon;2018-07-24 14:39:00;2018-07-24 14:39:00
454;26;Penusupan;2018-07-25 14:39:00;2018-07-25 14:39:00
455;26;Purwodeso;2018-07-26 14:39:00;2018-07-26 14:39:00
456;26;Sidoagung;2018-07-27 14:39:00;2018-07-27 14:39:00
457;26;Sidoharjo;2018-07-28 14:39:00;2018-07-28 14:39:00
458;26;Sruweng;2018-07-29 14:39:00;2018-07-29 14:39:00
459;26;Tanggeran;2018-07-30 14:39:00;2018-07-30 14:39:00
460;26;Trikarso;2018-07-31 14:39:00;2018-07-31 14:39:00
